^C:\USERS\ERIC\DOWNLOADS\BULLET-2.82-R2704\BULLET-2.82-R2704\SRC\BULLETSOFTBODY\BTSOFTBODY.CPP
/c /I"C:/Users/Eric/Downloads/bullet-2.82-r2704/bullet-2.82-r2704/Glut" /I"C:/Users/Eric/Downloads/bullet-2.82-r2704/bullet-2.82-r2704/src" /Zi /nologo /W3 /WX- /Od /Ob0 /D WIN32 /D _DEBUG /D _DEBUG /D _WIN64 /D USE_GRAPHICAL_BENCHMARK /D _IRR_STATIC_LIB_ /D _CRT_SECURE_NO_WARNINGS /D _CRT_SECURE_NO_DEPRECATE /D _SCL_SECURE_NO_WARNINGS /D "CMAKE_INTDIR=\"Debug\"" /D _MBCS /Gm- /EHsc /RTC1 /MDd /GS /fp:fast /Zc:wchar_t /Zc:forScope /GR /Fo"BULLETSOFTBODY.DIR\DEBUG\\" /Fd"BULLETSOFTBODY.DIR\DEBUG\VC120.PDB" /Gd /TP C:\USERS\ERIC\DOWNLOADS\BULLET-2.82-R2704\BULLET-2.82-R2704\SRC\BULLETSOFTBODY\BTSOFTBODY.CPP
^C:\USERS\ERIC\DOWNLOADS\BULLET-2.82-R2704\BULLET-2.82-R2704\SRC\BULLETSOFTBODY\BTSOFTBODYCONCAVECOLLISIONALGORITHM.CPP
/c /I"C:/Users/Eric/Downloads/bullet-2.82-r2704/bullet-2.82-r2704/Glut" /I"C:/Users/Eric/Downloads/bullet-2.82-r2704/bullet-2.82-r2704/src" /Zi /nologo /W3 /WX- /Od /Ob0 /D WIN32 /D _DEBUG /D _DEBUG /D _WIN64 /D USE_GRAPHICAL_BENCHMARK /D _IRR_STATIC_LIB_ /D _CRT_SECURE_NO_WARNINGS /D _CRT_SECURE_NO_DEPRECATE /D _SCL_SECURE_NO_WARNINGS /D "CMAKE_INTDIR=\"Debug\"" /D _MBCS /Gm- /EHsc /RTC1 /MDd /GS /fp:fast /Zc:wchar_t /Zc:forScope /GR /Fo"BULLETSOFTBODY.DIR\DEBUG\\" /Fd"BULLETSOFTBODY.DIR\DEBUG\VC120.PDB" /Gd /TP C:\USERS\ERIC\DOWNLOADS\BULLET-2.82-R2704\BULLET-2.82-R2704\SRC\BULLETSOFTBODY\BTSOFTBODYCONCAVECOLLISIONALGORITHM.CPP
^C:\USERS\ERIC\DOWNLOADS\BULLET-2.82-R2704\BULLET-2.82-R2704\SRC\BULLETSOFTBODY\BTSOFTBODYHELPERS.CPP
/c /I"C:/Users/Eric/Downloads/bullet-2.82-r2704/bullet-2.82-r2704/Glut" /I"C:/Users/Eric/Downloads/bullet-2.82-r2704/bullet-2.82-r2704/src" /Zi /nologo /W3 /WX- /Od /Ob0 /D WIN32 /D _DEBUG /D _DEBUG /D _WIN64 /D USE_GRAPHICAL_BENCHMARK /D _IRR_STATIC_LIB_ /D _CRT_SECURE_NO_WARNINGS /D _CRT_SECURE_NO_DEPRECATE /D _SCL_SECURE_NO_WARNINGS /D "CMAKE_INTDIR=\"Debug\"" /D _MBCS /Gm- /EHsc /RTC1 /MDd /GS /fp:fast /Zc:wchar_t /Zc:forScope /GR /Fo"BULLETSOFTBODY.DIR\DEBUG\\" /Fd"BULLETSOFTBODY.DIR\DEBUG\VC120.PDB" /Gd /TP C:\USERS\ERIC\DOWNLOADS\BULLET-2.82-R2704\BULLET-2.82-R2704\SRC\BULLETSOFTBODY\BTSOFTBODYHELPERS.CPP
^C:\USERS\ERIC\DOWNLOADS\BULLET-2.82-R2704\BULLET-2.82-R2704\SRC\BULLETSOFTBODY\BTSOFTBODYRIGIDBODYCOLLISIONCONFIGURATION.CPP
/c /I"C:/Users/Eric/Downloads/bullet-2.82-r2704/bullet-2.82-r2704/Glut" /I"C:/Users/Eric/Downloads/bullet-2.82-r2704/bullet-2.82-r2704/src" /Zi /nologo /W3 /WX- /Od /Ob0 /D WIN32 /D _DEBUG /D _DEBUG /D _WIN64 /D USE_GRAPHICAL_BENCHMARK /D _IRR_STATIC_LIB_ /D _CRT_SECURE_NO_WARNINGS /D _CRT_SECURE_NO_DEPRECATE /D _SCL_SECURE_NO_WARNINGS /D "CMAKE_INTDIR=\"Debug\"" /D _MBCS /Gm- /EHsc /RTC1 /MDd /GS /fp:fast /Zc:wchar_t /Zc:forScope /GR /Fo"BULLETSOFTBODY.DIR\DEBUG\\" /Fd"BULLETSOFTBODY.DIR\DEBUG\VC120.PDB" /Gd /TP C:\USERS\ERIC\DOWNLOADS\BULLET-2.82-R2704\BULLET-2.82-R2704\SRC\BULLETSOFTBODY\BTSOFTBODYRIGIDBODYCOLLISIONCONFIGURATION.CPP
^C:\USERS\ERIC\DOWNLOADS\BULLET-2.82-R2704\BULLET-2.82-R2704\SRC\BULLETSOFTBODY\BTSOFTRIGIDCOLLISIONALGORITHM.CPP
/c /I"C:/Users/Eric/Downloads/bullet-2.82-r2704/bullet-2.82-r2704/Glut" /I"C:/Users/Eric/Downloads/bullet-2.82-r2704/bullet-2.82-r2704/src" /Zi /nologo /W3 /WX- /Od /Ob0 /D WIN32 /D _DEBUG /D _DEBUG /D _WIN64 /D USE_GRAPHICAL_BENCHMARK /D _IRR_STATIC_LIB_ /D _CRT_SECURE_NO_WARNINGS /D _CRT_SECURE_NO_DEPRECATE /D _SCL_SECURE_NO_WARNINGS /D "CMAKE_INTDIR=\"Debug\"" /D _MBCS /Gm- /EHsc /RTC1 /MDd /GS /fp:fast /Zc:wchar_t /Zc:forScope /GR /Fo"BULLETSOFTBODY.DIR\DEBUG\\" /Fd"BULLETSOFTBODY.DIR\DEBUG\VC120.PDB" /Gd /TP C:\USERS\ERIC\DOWNLOADS\BULLET-2.82-R2704\BULLET-2.82-R2704\SRC\BULLETSOFTBODY\BTSOFTRIGIDCOLLISIONALGORITHM.CPP
^C:\USERS\ERIC\DOWNLOADS\BULLET-2.82-R2704\BULLET-2.82-R2704\SRC\BULLETSOFTBODY\BTSOFTRIGIDDYNAMICSWORLD.CPP
/c /I"C:/Users/Eric/Downloads/bullet-2.82-r2704/bullet-2.82-r2704/Glut" /I"C:/Users/Eric/Downloads/bullet-2.82-r2704/bullet-2.82-r2704/src" /Zi /nologo /W3 /WX- /Od /Ob0 /D WIN32 /D _DEBUG /D _DEBUG /D _WIN64 /D USE_GRAPHICAL_BENCHMARK /D _IRR_STATIC_LIB_ /D _CRT_SECURE_NO_WARNINGS /D _CRT_SECURE_NO_DEPRECATE /D _SCL_SECURE_NO_WARNINGS /D "CMAKE_INTDIR=\"Debug\"" /D _MBCS /Gm- /EHsc /RTC1 /MDd /GS /fp:fast /Zc:wchar_t /Zc:forScope /GR /Fo"BULLETSOFTBODY.DIR\DEBUG\\" /Fd"BULLETSOFTBODY.DIR\DEBUG\VC120.PDB" /Gd /TP C:\USERS\ERIC\DOWNLOADS\BULLET-2.82-R2704\BULLET-2.82-R2704\SRC\BULLETSOFTBODY\BTSOFTRIGIDDYNAMICSWORLD.CPP
^C:\USERS\ERIC\DOWNLOADS\BULLET-2.82-R2704\BULLET-2.82-R2704\SRC\BULLETSOFTBODY\BTSOFTSOFTCOLLISIONALGORITHM.CPP
/c /I"C:/Users/Eric/Downloads/bullet-2.82-r2704/bullet-2.82-r2704/Glut" /I"C:/Users/Eric/Downloads/bullet-2.82-r2704/bullet-2.82-r2704/src" /Zi /nologo /W3 /WX- /Od /Ob0 /D WIN32 /D _DEBUG /D _DEBUG /D _WIN64 /D USE_GRAPHICAL_BENCHMARK /D _IRR_STATIC_LIB_ /D _CRT_SECURE_NO_WARNINGS /D _CRT_SECURE_NO_DEPRECATE /D _SCL_SECURE_NO_WARNINGS /D "CMAKE_INTDIR=\"Debug\"" /D _MBCS /Gm- /EHsc /RTC1 /MDd /GS /fp:fast /Zc:wchar_t /Zc:forScope /GR /Fo"BULLETSOFTBODY.DIR\DEBUG\\" /Fd"BULLETSOFTBODY.DIR\DEBUG\VC120.PDB" /Gd /TP C:\USERS\ERIC\DOWNLOADS\BULLET-2.82-R2704\BULLET-2.82-R2704\SRC\BULLETSOFTBODY\BTSOFTSOFTCOLLISIONALGORITHM.CPP
^C:\USERS\ERIC\DOWNLOADS\BULLET-2.82-R2704\BULLET-2.82-R2704\SRC\BULLETSOFTBODY\BTDEFAULTSOFTBODYSOLVER.CPP
/c /I"C:/Users/Eric/Downloads/bullet-2.82-r2704/bullet-2.82-r2704/Glut" /I"C:/Users/Eric/Downloads/bullet-2.82-r2704/bullet-2.82-r2704/src" /Zi /nologo /W3 /WX- /Od /Ob0 /D WIN32 /D _DEBUG /D _DEBUG /D _WIN64 /D USE_GRAPHICAL_BENCHMARK /D _IRR_STATIC_LIB_ /D _CRT_SECURE_NO_WARNINGS /D _CRT_SECURE_NO_DEPRECATE /D _SCL_SECURE_NO_WARNINGS /D "CMAKE_INTDIR=\"Debug\"" /D _MBCS /Gm- /EHsc /RTC1 /MDd /GS /fp:fast /Zc:wchar_t /Zc:forScope /GR /Fo"BULLETSOFTBODY.DIR\DEBUG\\" /Fd"BULLETSOFTBODY.DIR\DEBUG\VC120.PDB" /Gd /TP C:\USERS\ERIC\DOWNLOADS\BULLET-2.82-R2704\BULLET-2.82-R2704\SRC\BULLETSOFTBODY\BTDEFAULTSOFTBODYSOLVER.CPP
