^C:\USERS\ERIC\DOWNLOADS\BULLET-2.82-R2704\BULLET-2.82-R2704\SRC\BULLETMULTITHREADED\BTGPU3DGRIDBROADPHASE.CPP|C:\USERS\ERIC\DOWNLOADS\BULLET-2.82-R2704\BULLET-2.82-R2704\SRC\BULLETMULTITHREADED\BTPARALLELCONSTRAINTSOLVER.CPP|C:\USERS\ERIC\DOWNLOADS\BULLET-2.82-R2704\BULLET-2.82-R2704\SRC\BULLETMULTITHREADED\BTTHREADSUPPORTINTERFACE.CPP|C:\USERS\ERIC\DOWNLOADS\BULLET-2.82-R2704\BULLET-2.82-R2704\SRC\BULLETMULTITHREADED\POSIXTHREADSUPPORT.CPP|C:\USERS\ERIC\DOWNLOADS\BULLET-2.82-R2704\BULLET-2.82-R2704\SRC\BULLETMULTITHREADED\SEQUENTIALTHREADSUPPORT.CPP|C:\USERS\ERIC\DOWNLOADS\BULLET-2.82-R2704\BULLET-2.82-R2704\SRC\BULLETMULTITHREADED\SPUCOLLISIONOBJECTWRAPPER.CPP|C:\USERS\ERIC\DOWNLOADS\BULLET-2.82-R2704\BULLET-2.82-R2704\SRC\BULLETMULTITHREADED\SPUCOLLISIONTASKPROCESS.CPP|C:\USERS\ERIC\DOWNLOADS\BULLET-2.82-R2704\BULLET-2.82-R2704\SRC\BULLETMULTITHREADED\SPUCONTACTMANIFOLDCOLLISIONALGORITHM.CPP|C:\USERS\ERIC\DOWNLOADS\BULLET-2.82-R2704\BULLET-2.82-R2704\SRC\BULLETMULTITHREADED\SPUFAKEDMA.CPP|C:\USERS\ERIC\DOWNLOADS\BULLET-2.82-R2704\BULLET-2.82-R2704\SRC\BULLETMULTITHREADED\SPUGATHERINGCOLLISIONDISPATCHER.CPP|C:\USERS\ERIC\DOWNLOADS\BULLET-2.82-R2704\BULLET-2.82-R2704\SRC\BULLETMULTITHREADED\SPULIBSPE2SUPPORT.CPP|C:\USERS\ERIC\DOWNLOADS\BULLET-2.82-R2704\BULLET-2.82-R2704\SRC\BULLETMULTITHREADED\SPUNARROWPHASECOLLISIONTASK\BOXBOXDISTANCE.CPP|C:\USERS\ERIC\DOWNLOADS\BULLET-2.82-R2704\BULLET-2.82-R2704\SRC\BULLETMULTITHREADED\SPUNARROWPHASECOLLISIONTASK\SPUCOLLISIONSHAPES.CPP|C:\USERS\ERIC\DOWNLOADS\BULLET-2.82-R2704\BULLET-2.82-R2704\SRC\BULLETMULTITHREADED\SPUNARROWPHASECOLLISIONTASK\SPUCONTACTRESULT.CPP|C:\USERS\ERIC\DOWNLOADS\BULLET-2.82-R2704\BULLET-2.82-R2704\SRC\BULLETMULTITHREADED\SPUNARROWPHASECOLLISIONTASK\SPUGATHERINGCOLLISIONTASK.CPP|C:\USERS\ERIC\DOWNLOADS\BULLET-2.82-R2704\BULLET-2.82-R2704\SRC\BULLETMULTITHREADED\SPUNARROWPHASECOLLISIONTASK\SPUMINKOWSKIPENETRATIONDEPTHSOLVER.CPP|C:\USERS\ERIC\DOWNLOADS\BULLET-2.82-R2704\BULLET-2.82-R2704\SRC\BULLETMULTITHREADED\SPUSAMPLETASKPROCESS.CPP|C:\USERS\ERIC\DOWNLOADS\BULLET-2.82-R2704\BULLET-2.82-R2704\SRC\BULLETMULTITHREADED\WIN32THREADSUPPORT.CPP
C:\USERS\ERIC\DOWNLOADS\BULLET-2.82-R2704\BULLET-2.82-R2704\CMAKEBUILD\SRC\BULLETMULTITHREADED\BULLETMULTITHREADED.DIR\RELEASE\BTGPU3DGRIDBROADPHASE.OBJ
C:\USERS\ERIC\DOWNLOADS\BULLET-2.82-R2704\BULLET-2.82-R2704\CMAKEBUILD\SRC\BULLETMULTITHREADED\BULLETMULTITHREADED.DIR\RELEASE\SPUCOLLISIONSHAPES.OBJ
C:\USERS\ERIC\DOWNLOADS\BULLET-2.82-R2704\BULLET-2.82-R2704\CMAKEBUILD\SRC\BULLETMULTITHREADED\BULLETMULTITHREADED.DIR\RELEASE\SPUGATHERINGCOLLISIONTASK.OBJ
C:\USERS\ERIC\DOWNLOADS\BULLET-2.82-R2704\BULLET-2.82-R2704\CMAKEBUILD\SRC\BULLETMULTITHREADED\BULLETMULTITHREADED.DIR\RELEASE\SPUMINKOWSKIPENETRATIONDEPTHSOLVER.OBJ
C:\USERS\ERIC\DOWNLOADS\BULLET-2.82-R2704\BULLET-2.82-R2704\CMAKEBUILD\SRC\BULLETMULTITHREADED\BULLETMULTITHREADED.DIR\RELEASE\SPUCONTACTRESULT.OBJ
C:\USERS\ERIC\DOWNLOADS\BULLET-2.82-R2704\BULLET-2.82-R2704\CMAKEBUILD\SRC\BULLETMULTITHREADED\BULLETMULTITHREADED.DIR\RELEASE\BOXBOXDISTANCE.OBJ
C:\USERS\ERIC\DOWNLOADS\BULLET-2.82-R2704\BULLET-2.82-R2704\CMAKEBUILD\SRC\BULLETMULTITHREADED\BULLETMULTITHREADED.DIR\RELEASE\BTPARALLELCONSTRAINTSOLVER.OBJ
C:\USERS\ERIC\DOWNLOADS\BULLET-2.82-R2704\BULLET-2.82-R2704\CMAKEBUILD\SRC\BULLETMULTITHREADED\BULLETMULTITHREADED.DIR\RELEASE\SPUCONTACTMANIFOLDCOLLISIONALGORITHM.OBJ
C:\USERS\ERIC\DOWNLOADS\BULLET-2.82-R2704\BULLET-2.82-R2704\CMAKEBUILD\SRC\BULLETMULTITHREADED\BULLETMULTITHREADED.DIR\RELEASE\SPUGATHERINGCOLLISIONDISPATCHER.OBJ
C:\USERS\ERIC\DOWNLOADS\BULLET-2.82-R2704\BULLET-2.82-R2704\CMAKEBUILD\SRC\BULLETMULTITHREADED\BULLETMULTITHREADED.DIR\RELEASE\SPUCOLLISIONTASKPROCESS.OBJ
C:\USERS\ERIC\DOWNLOADS\BULLET-2.82-R2704\BULLET-2.82-R2704\CMAKEBUILD\SRC\BULLETMULTITHREADED\BULLETMULTITHREADED.DIR\RELEASE\SPUCOLLISIONOBJECTWRAPPER.OBJ
C:\USERS\ERIC\DOWNLOADS\BULLET-2.82-R2704\BULLET-2.82-R2704\CMAKEBUILD\SRC\BULLETMULTITHREADED\BULLETMULTITHREADED.DIR\RELEASE\SPUSAMPLETASKPROCESS.OBJ
C:\USERS\ERIC\DOWNLOADS\BULLET-2.82-R2704\BULLET-2.82-R2704\CMAKEBUILD\SRC\BULLETMULTITHREADED\BULLETMULTITHREADED.DIR\RELEASE\SEQUENTIALTHREADSUPPORT.OBJ
C:\USERS\ERIC\DOWNLOADS\BULLET-2.82-R2704\BULLET-2.82-R2704\CMAKEBUILD\SRC\BULLETMULTITHREADED\BULLETMULTITHREADED.DIR\RELEASE\POSIXTHREADSUPPORT.OBJ
C:\USERS\ERIC\DOWNLOADS\BULLET-2.82-R2704\BULLET-2.82-R2704\CMAKEBUILD\SRC\BULLETMULTITHREADED\BULLETMULTITHREADED.DIR\RELEASE\WIN32THREADSUPPORT.OBJ
C:\USERS\ERIC\DOWNLOADS\BULLET-2.82-R2704\BULLET-2.82-R2704\CMAKEBUILD\SRC\BULLETMULTITHREADED\BULLETMULTITHREADED.DIR\RELEASE\BTTHREADSUPPORTINTERFACE.OBJ
C:\USERS\ERIC\DOWNLOADS\BULLET-2.82-R2704\BULLET-2.82-R2704\CMAKEBUILD\SRC\BULLETMULTITHREADED\BULLETMULTITHREADED.DIR\RELEASE\SPULIBSPE2SUPPORT.OBJ
C:\USERS\ERIC\DOWNLOADS\BULLET-2.82-R2704\BULLET-2.82-R2704\CMAKEBUILD\SRC\BULLETMULTITHREADED\BULLETMULTITHREADED.DIR\RELEASE\SPUFAKEDMA.OBJ
