^C:\USERS\ERIC\DOWNLOADS\BULLET-2.82-R2704\BULLET-2.82-R2704\CMAKEBUILD\CMAKEFILES\3EF614E127ED0BEDBDB33ED1ED3FA038\GENERATE.STAMP.RULE
C:\USERS\ERIC\DOWNLOADS\BULLET-2.82-R2704\BULLET-2.82-R2704\CMAKEBUILD\CMAKEFILES\GENERATE.STAMP
C:\USERS\ERIC\DOWNLOADS\BULLET-2.82-R2704\BULLET-2.82-R2704\CMAKEBUILD\EXTRAS\CMAKEFILES\GENERATE.STAMP
C:\USERS\ERIC\DOWNLOADS\BULLET-2.82-R2704\BULLET-2.82-R2704\CMAKEBUILD\SRC\CMAKEFILES\GENERATE.STAMP
C:\USERS\ERIC\DOWNLOADS\BULLET-2.82-R2704\BULLET-2.82-R2704\CMAKEBUILD\EXTRAS\SERIALIZE\CMAKEFILES\GENERATE.STAMP
C:\USERS\ERIC\DOWNLOADS\BULLET-2.82-R2704\BULLET-2.82-R2704\CMAKEBUILD\EXTRAS\CONVEXDECOMPOSITION\CMAKEFILES\GENERATE.STAMP
C:\USERS\ERIC\DOWNLOADS\BULLET-2.82-R2704\BULLET-2.82-R2704\CMAKEBUILD\EXTRAS\HACD\CMAKEFILES\GENERATE.STAMP
C:\USERS\ERIC\DOWNLOADS\BULLET-2.82-R2704\BULLET-2.82-R2704\CMAKEBUILD\EXTRAS\GIMPACTUTILS\CMAKEFILES\GENERATE.STAMP
C:\USERS\ERIC\DOWNLOADS\BULLET-2.82-R2704\BULLET-2.82-R2704\CMAKEBUILD\EXTRAS\GLUI\CMAKEFILES\GENERATE.STAMP
C:\USERS\ERIC\DOWNLOADS\BULLET-2.82-R2704\BULLET-2.82-R2704\CMAKEBUILD\EXTRAS\SERIALIZE\BULLETFILELOADER\CMAKEFILES\GENERATE.STAMP
C:\USERS\ERIC\DOWNLOADS\BULLET-2.82-R2704\BULLET-2.82-R2704\CMAKEBUILD\EXTRAS\SERIALIZE\BULLETXMLWORLDIMPORTER\CMAKEFILES\GENERATE.STAMP
C:\USERS\ERIC\DOWNLOADS\BULLET-2.82-R2704\BULLET-2.82-R2704\CMAKEBUILD\EXTRAS\SERIALIZE\BULLETWORLDIMPORTER\CMAKEFILES\GENERATE.STAMP
C:\USERS\ERIC\DOWNLOADS\BULLET-2.82-R2704\BULLET-2.82-R2704\CMAKEBUILD\SRC\BULLETSOFTBODY\CMAKEFILES\GENERATE.STAMP
C:\USERS\ERIC\DOWNLOADS\BULLET-2.82-R2704\BULLET-2.82-R2704\CMAKEBUILD\SRC\BULLETCOLLISION\CMAKEFILES\GENERATE.STAMP
C:\USERS\ERIC\DOWNLOADS\BULLET-2.82-R2704\BULLET-2.82-R2704\CMAKEBUILD\SRC\BULLETDYNAMICS\CMAKEFILES\GENERATE.STAMP
C:\USERS\ERIC\DOWNLOADS\BULLET-2.82-R2704\BULLET-2.82-R2704\CMAKEBUILD\SRC\LINEARMATH\CMAKEFILES\GENERATE.STAMP
C:\USERS\ERIC\DOWNLOADS\BULLET-2.82-R2704\BULLET-2.82-R2704\CMAKEBUILD\SRC\MINICL\CMAKEFILES\GENERATE.STAMP
C:\USERS\ERIC\DOWNLOADS\BULLET-2.82-R2704\BULLET-2.82-R2704\CMAKEBUILD\SRC\BULLETMULTITHREADED\CMAKEFILES\GENERATE.STAMP
C:\USERS\ERIC\DOWNLOADS\BULLET-2.82-R2704\BULLET-2.82-R2704\CMAKEBUILD\SRC\BULLETMULTITHREADED\GPUSOFTBODYSOLVERS\CMAKEFILES\GENERATE.STAMP
C:\USERS\ERIC\DOWNLOADS\BULLET-2.82-R2704\BULLET-2.82-R2704\CMAKEBUILD\SRC\BULLETMULTITHREADED\GPUSOFTBODYSOLVERS\OPENCL\CMAKEFILES\GENERATE.STAMP
C:\USERS\ERIC\DOWNLOADS\BULLET-2.82-R2704\BULLET-2.82-R2704\CMAKEBUILD\SRC\BULLETMULTITHREADED\GPUSOFTBODYSOLVERS\OPENCL\MINICL\CMAKEFILES\GENERATE.STAMP
^C:\USERS\ERIC\DOWNLOADS\BULLET-2.82-R2704\BULLET-2.82-R2704\CMAKEBUILD\CMAKEFILES\3EF614E127ED0BEDBDB33ED1ED3FA038\ZERO_CHECK.RULE
C:\USERS\ERIC\DOWNLOADS\BULLET-2.82-R2704\BULLET-2.82-R2704\CMAKEBUILD\CMAKEFILES\ZERO_CHECK
